{
  "name": "details",
  "base": "PersistedModel",
  "idInjection": true,
  "options": {
    "validateUpsert": true
  },
  "properties": {
    "URL": {
      "type": "string"
    },
    "ipAddress": {
      "type": "string"
    },
    "username": {
      "type": "string"
    },
    "password": {
      "type": "string"
    },
    "permissionFiles": {
      "type": [
        "object"
      ]
    },
    "path": {
      "type": "string"
    }
  },
  "validations": [],
  "relations": {},
  "acls": [],
  "methods": {}
}
